module config-system

go 1.15

require (
	github.com/ajg/form v1.5.1 // indirect
	github.com/aws/aws-sdk-go v1.29.15
	github.com/fasthttp-contrib/websocket v0.0.0-20160511215533-1f3b11f56072 // indirect
	github.com/google/go-querystring v1.0.0 // indirect
	github.com/imkira/go-interpol v1.1.0 // indirect
	github.com/joho/godotenv v1.3.0
	github.com/k0kubun/colorstring v0.0.0-20150214042306-9440f1994b88 // indirect
	github.com/kataras/iris/v12 v12.1.8
	github.com/mattn/go-colorable v0.1.8 // indirect
	github.com/moul/http2curl v1.0.0 // indirect
	github.com/onsi/ginkgo v1.14.2 // indirect
	github.com/onsi/gomega v1.10.3 // indirect
	github.com/sergi/go-diff v1.1.0 // indirect
	github.com/shurcooL/sanitized_anchor_name v1.0.0 // indirect
	github.com/smartystreets/goconvey v1.6.4 // indirect
	github.com/valyala/fasthttp v1.17.0 // indirect
	github.com/xeipuuv/gojsonschema v1.2.0 // indirect
	github.com/yalp/jsonpath v0.0.0-20180802001716-5cc68e5049a0 // indirect
	github.com/yudai/gojsondiff v1.0.0 // indirect
	github.com/yudai/golcs v0.0.0-20170316035057-ecda9a501e82 // indirect
	github.com/yudai/pp v2.0.1+incompatible // indirect
	go.mongodb.org/mongo-driver v1.4.1
)
